%YAML 1.1
%TAG !u! tag:unity3d.com,2011:
--- !u!114 &11400000
MonoBehaviour:
  m_ObjectHideFlags: 0
  m_CorrespondingSourceObject: {fileID: 0}
  m_PrefabInstance: {fileID: 0}
  m_PrefabAsset: {fileID: 0}
  m_GameObject: {fileID: 0}
  m_Enabled: 1
  m_EditorHideFlags: 0
  m_Script: {fileID: 11500000, guid: ddc317cab3b4a0242a509e9fdc767571, type: 3}
  m_Name: Rule 2
  m_EditorClassIdentifier: 
  m_Order: 0
  m_Title: NO CHEATING
  m_Header: Only touch the pie or face with spoon
  m_Footer: NO TOUCHING
  m_Graphic: {fileID: 0}
  m_Speech: {fileID: 0}
