%YAML 1.1
%TAG !u! tag:unity3d.com,2011:
--- !u!114 &11400000
MonoBehaviour:
  m_ObjectHideFlags: 0
  m_CorrespondingSourceObject: {fileID: 0}
  m_PrefabInstance: {fileID: 0}
  m_PrefabAsset: {fileID: 0}
  m_GameObject: {fileID: 0}
  m_Enabled: 1
  m_EditorHideFlags: 0
  m_Script: {fileID: 11500000, guid: dbe90454e4c811c4eb6dd4e2e73d2392, type: 3}
  m_Name: Character4
  m_EditorClassIdentifier: 
  m_Name: Cherry
  m_Color: {r: 0.8862745, g: 0.45490196, b: 0.47688618, a: 1}
  m_Sprite: {fileID: 21300000, guid: 62f7991d7f976f24998aac7341fe0061, type: 3}
  m_PieSprites:
  - {fileID: 21300000, guid: 62f7991d7f976f24998aac7341fe0061, type: 3}
  m_PostiveSFX:
  - AudioClip: {fileID: 8300000, guid: 0260c01c2547e934fa85ac380374df55, type: 3}
    Master: 1
    Pitch: 2
  m_NegativeSFX:
  - AudioClip: {fileID: 8300000, guid: 371200b81dde19d49beb703c75a003cf, type: 3}
    Master: 1
    Pitch: 2
  - AudioClip: {fileID: 8300000, guid: 29234ad37648c184099319f0a102875c, type: 3}
    Master: 1
    Pitch: 3
  - AudioClip: {fileID: 8300000, guid: 43da68e01fe62df45a85155133eab492, type: 3}
    Master: 1
    Pitch: 4
  - AudioClip: {fileID: 8300000, guid: 3edab1d5891c5b043963d389efc64072, type: 3}
    Master: 1
    Pitch: 2
  Index: 3
